"r -nom-",96.108970,75.296899,414.743748
"s1 -nom-",92.987584,78.031122,420.652120
"s2 -nom-",92.932071,78.058568,420.680143
"c1 -nom-",89.090444,78.068971,424.805884
"c2 -nom-",88.212905,80.269072,418.966518
"l1 -nom-",84.639207,83.583543,416.480387
"s3 -nom-",89.981819,79.796046,421.618442
"l2 -nom-",86.470975,79.241850,420.616578

#edges
r: s1
s1: c1, s2
s2: c2, s3
s3: l1, l2