"r -nom-",130.554682,68.990860,345.368433
"s1 -nom-",129.934458,75.037160,345.404093
"s2 -nom-",129.908046,75.190989,345.406585
"s3 -nom-",130.199097,78.010875,344.776179
"s4 -nom-",128.266938,80.237946,344.886180
"s5 -nom-",130.145862,83.676199,343.507721
"s6 -nom-",128.992784,84.560006,346.004230
"s7 -nom-",127.479465,87.467877,344.191148
"s8 -nom-",128.846179,90.576478,345.490214
"s9 -nom-",128.102323,91.099211,345.917370
"c1 -nom-",132.056429,77.684332,340.823502
"c2 -nom-",126.280796,77.682167,348.190915
"l1 -nom-",138.349682,88.111746,354.770173
"l2 -nom-",114.862627,88.891465,340.184696
"l3 -nom-",140.421826,94.002767,337.418564
"l4 -nom-",122.065431,97.486817,360.142385
"l5 -nom-",123.500760,103.535523,335.010516
"l6 -nom-",134.688333,106.342706,350.633290
"l7 -nom-",122.920672,101.919569,347.460698
"l8 -nom-",128.760965,96.958199,344.075547

#edges
r: s1
s1: c1, s2
s2: c2, s3
s3: l1, s4
s4: l2, s5
s5: l3, s6
s6: l4, s7
s7: l5, s8
s8: l6, s9
s9: l7, l8