"s1 -nom-",77.605578,79.789877,404.520324
"s2 -nom-",77.600337,79.913346,404.563002
"s3 -nom-",78.126133,84.402333,405.246963
"s4 -nom-",76.279018,85.546325,406.656169
"s5 -nom-",76.000522,87.517919,405.450636
"s6 -nom-",78.432542,90.389410,406.960173
"s7 -nom-",76.053245,92.846179,408.392394
"s8 -nom-",76.588197,97.473238,406.787433
"s9 -nom-",77.091420,101.568705,410.031944
"s10 -nom-",75.401872,104.795034,409.874564
"s11 -nom-",76.961101,106.285383,410.784876
"c1 -nom-",72.534339,82.748114,403.645063
"c2 -nom-",80.054571,82.649809,408.312175
"l1 -nom-",86.964268,87.176963,394.839502
"l2 -nom-",70.674597,89.780509,421.096708
"l3 -nom-",66.658527,98.651925,396.219695
"l4 -nom-",95.498992,103.092154,417.275654
"l5 -nom-",59.228675,112.423759,418.872058
"l6 -nom-",80.604246,120.793604,397.763958
"l7 -nom-",79.362645,118.604258,430.461973
"l8 -nom-",65.268853,123.415125,406.560576
"l9 -nom-",82.232541,120.937193,413.445120
"l10 -nom-",75.554816,115.609427,412.022314
"r -nom-",78.174018,72.393083,405.285121

#edges
r: s1
s1: c1, s2
s2: c2, s3
s3: l1, s4
s4: l2, s5
s5: l3, s6
s6: l4, s7
s7: l5, s8
s8: l6, s9
s9: l7, s10
s10: l8, s11
s11: l9, l10