"r -nom-",137.155737,75.373612,341.602874
"s1 -nom-",138.227626,84.079157,342.397718
"s2 -nom-",138.247504,84.136078,342.401364
"c1 -nom-",139.023618,85.766483,343.633973
"c2 -nom-",137.777082,86.323857,341.253226
"l1 -nom-",136.989725,87.030193,343.141517

#edges
r: s1
s1: c1, s2
s2: c2, l1