"r -nom-",89.626560,74.804222,400.687898
"s1 -nom-",87.987638,94.024371,397.637545
"s2 -nom-",87.906590,94.127043,397.578809
"s3 -nom-",85.659525,108.431329,395.639240
"s4 -nom-",85.886094,114.430790,392.150803
"s5 -nom-",83.518100,126.715826,390.472477
"s6 -nom-",84.360826,134.929329,389.408431
"s7 -nom-",83.033965,140.203491,387.095752
"s8 -nom-",81.912606,144.303213,387.938424
"c1 -nom-",93.238669,99.161949,396.829030
"c2 -nom-",81.075147,94.652651,396.907229
"l1 -nom-",85.437602,124.326057,408.069778
"l2 -nom-",96.109150,123.608354,373.982157
"l3 -nom-",69.621013,137.988304,386.099283
"l4 -nom-",94.743747,158.532713,394.904329
"l5 -nom-",80.721159,159.621486,371.000746
"l6 -nom-",76.300685,156.514120,393.157296
"l7 -nom-",82.745436,147.832062,386.101311

#edges
r: s1
s1: c1, s2
s2: c2, s3
s3: l1, s4
s4: l2, s5
s5: l3, s6
s6: l4, s7
s7: l5, s8
s8: l6, l7