"s1 -nom-",89.043918,80.831630,401.994748
"s2 -nom-",89.045113,80.938246,401.998359
"s3 -nom-",89.296326,82.879688,401.910624
"c1 -nom-",87.032496,84.913803,402.355000
"c2 -nom-",91.517880,84.678524,402.932356
"l1 -nom-",87.636899,88.790929,396.801744
"l2 -nom-",89.238738,86.425511,405.274881
"r -nom-",88.586238,68.883305,402.706022

#edges
r: s1
s1: c1, s2
s2: c2, s3
s3: l1, l2