"s1 -nom-",127.996707,78.715125,386.342286
"s2 -nom-",128.048261,79.042877,386.295326
"s3 -nom-",128.022528,82.282259,385.689471
"s4 -nom-",127.812172,83.785458,384.890639
"s5 -nom-",127.705646,84.074252,384.984925
"c1 -nom-",131.642352,82.563986,384.539026
"c2 -nom-",125.766883,83.286582,383.521290
"l1 -nom-",125.843942,94.559070,395.821195
"l2 -nom-",126.789512,91.328607,374.297508
"l3 -nom-",130.153546,88.476558,386.847622
"l4 -nom-",128.093002,84.384543,385.377958
"r -nom-",120.850179,72.131954,390.053736

#edges
r: s1
s1: c1, s2
s2: c2, s3
s3: l1, s4
s4: l2, s5
s5: l3, l4