"s1 -nom-",92.610580,77.035845,413.106920
"s2 -nom-",92.623189,77.171154,413.131350
"s3 -nom-",92.722145,78.675930,412.998966
"c1 -nom-",93.829688,80.073246,411.444713
"c2 -nom-",91.158225,80.002462,414.120806
"l1 -nom-",95.584616,84.471354,416.060771
"l2 -nom-",90.138419,82.683589,411.672197
"r -nom-",92.426215,70.240957,412.887456

#edges
r: s1
s1: c1, s2
s2: c2, s3
s3: l1, l2
