r,86.660402,62.560760,404.192182
s1,87.698639,81.582888,406.203430
s2,87.695993,81.699177,406.167246
c1,87.049045,84.830005,406.896152
c2,89.097481,83.699720,406.289145

#edges
r: s1
s1: c1, s2
s2: c2