"r -nom-",70.213332,58.638162,399.129601
"s1 -nom-",71.922206,82.701783,398.607761
"s2 -nom-",71.939987,82.865628,398.605966
"s3 -nom-",73.258849,97.106972,396.344389
"s4 -nom-",73.512683,106.368112,398.766589
"c1 -nom-",50.174797,99.544340,391.876666
"c2 -nom-",98.924442,94.424094,401.824149
"b1_0 -nom-",81.575110,121.444484,382.242336
"b1_1 -nom-",84.217011,126.032947,378.793329
"b1_2 -nom-",86.705792,131.044908,373.375778
"b1_3 -nom-",92.943356,137.581343,366.408652
"l1_0 -nom-",78.666316,123.638127,381.510142
"l1_1 -nom-",86.422925,128.244387,381.447392
"l1_2 -nom-",82.595594,136.440725,368.530365
"l1_3 -nom-",96.629535,139.990530,368.839395
"l1_4 -nom-",97.328699,141.102739,359.554109
"b2_0 -nom-",75.683319,121.401777,406.692445
"b2_1 -nom-",75.818902,122.045266,407.172388
"b2_2 -nom-",75.431750,129.894550,413.593779
"b2_3 -nom-",75.468429,130.423608,414.162590
"b2_4 -nom-",74.753681,140.455122,429.141185
"b2_5 -nom-",75.316509,142.086259,433.257344
"l2_0 -nom-",74.766793,122.005044,406.147519
"l2_1 -nom-",77.591258,124.571909,406.613260
"l2_2 -nom-",72.525383,132.545349,413.106421
"l2_3 -nom-",80.633829,133.830068,414.699933
"l2_4 -nom-",73.516219,140.638964,429.274173
"l2_5 -nom-",76.089773,142.376129,433.612425
"l2_6 -nom-",76.135804,142.426116,436.996787
"l3_0 -nom-",74.809303,119.674802,397.303841

#edges
r: s1
s1: c1, s2
s2: c2, s3
s3: b1_0, s4
s4: b2_0, l3_0
b1_0: l1_0, b1_1
b1_1: l1_1, b1_2
b1_2: l1_2, b1_3
b1_3: l1_3, l1_4
b2_0: l2_0, b2_1
b2_1: l2_1, b2_2
b2_2: l2_2, b2_3
b2_3: l2_3, b2_4
b2_4: l2_4, b2_5
b2_5: l2_5, l2_6