"r -nom-",94.129307,64.513748,363.971412
"s1 -nom-",90.189300,98.846400,364.830192
"s2 -nom-",90.152798,98.930943,364.832693
"s3 -nom-",89.526727,106.097941,365.190807
"c1 -nom-",84.664824,109.907521,366.651412
"c2 -nom-",94.646404,108.983769,364.070121
"l1_0 -nom-",92.096344,116.270760,376.792380
"l2_0 -nom-",89.778440,117.151353,361.571500

#edges
r: s1
s1: c1, s2
s2: c2, s3
s3: l1_0, l2_0