"r -nom-",91.259683,50.962677,395.828399
"s1 -nom-",90.158897,68.652111,396.089465
"s2 -nom-",90.142865,68.704839,396.090673
"s3 -nom-",90.130687,68.853100,396.096637
"c1 -nom-",86.091657,75.237871,398.021954
"c2 -nom-",94.663384,75.454219,396.406885
"l1_a -nom-",89.577719,72.922290,393.910984
"l2_a -nom-",89.778792,71.366868,397.213714

#edges
r: s1
s1: c1, s2
s2: c2, s3
s3: l1_a, l2_a