"r -nom-",95.080255,51.451033,404.716809
"s1 -nom-",96.990523,73.769774,406.474871
"s2 -nom-",96.973171,73.852805,406.484968
"s3 -nom-",97.113526,80.321357,405.281003
"s4 -nom-",94.736589,83.988586,403.572279
"s5 -nom-",94.696094,86.741719,403.516521
"c1 -nom-",110.462656,91.592824,394.872357
"c2 -nom-",77.245052,92.865169,410.796350
"b1_1 -nom-",107.280502,101.897833,418.145634
"b1_2 -nom-",110.575027,105.479613,422.526577
"l1_1 -nom-",111.327406,104.605539,416.117260
"l1_2 -nom-",108.940082,108.850015,424.628984
"l1_3 -nom-",118.241266,110.226386,430.554161
"b2_1 -nom-",92.483639,94.287011,393.805254
"b2_2 -nom-",91.071025,98.367518,388.322214
"b2_3 -nom-",90.297320,100.241138,384.895679
"b2_4 -nom-",87.278331,103.218939,376.106696
"b2_5 -nom-",85.650443,103.874473,370.225992
"l2_1 -nom-",93.367232,95.111088,393.932902
"l2_2 -nom-",89.750890,100.663877,388.651002
"l2_3 -nom-",92.489210,101.544730,383.517735
"l2_4 -nom-",85.997871,105.503853,376.383916
"l2_5 -nom-",86.359332,104.106996,370.017344
"l2_6 -nom-",83.729601,104.175456,365.331382
"l3_1 -nom-",92.429352,98.652441,403.318479
"l4_1 -nom-",96.596402,88.644277,402.516054


#edges
r: s1
s1: c1, s2
s2: c2, s3
s3: b1_1, s4
s4: b2_1, s5
s5: l3_1, l4_1
b1_1: l1_1, b1_2
b1_2: l1_2, l1_3
b2_1: l2_1, b2_2
b2_2: l2_2, b2_3
b2_3: l2_3, b2_4
b2_4: l2_4, b2_5
b2_5: l2_5, l2_6
