"r -nom-",113.990804,49.818391,374.965369
"s1 -nom-",114.425663,71.699147,378.227198
"s2 -nom-",114.381582,71.906341,378.215629
"s3 -nom-",113.450848,74.716508,376.778014
"s4 -nom-",114.372132,75.406648,377.349704
"c1 -nom-",122.449350,84.889660,370.888706
"c2 -nom-",106.535823,85.790301,385.995134
"b1_1 -nom-",121.863263,84.313520,382.649891
"b1_2 -nom-",122.021528,84.396138,382.754894
"l1_1 -nom-",122.218525,86.012273,381.133221
"l1_2 -nom-",120.074227,86.074348,383.885938
"l1_3 -nom-",126.739328,87.732171,385.222331
"b2_1 -nom-",105.369346,83.533462,368.843333
"b2_2 -nom-",105.136797,83.700987,368.684012
"l2_1 -nom-",105.974120,85.274775,367.974871
"l2_2 -nom-",102.519421,85.757170,369.611861
"l2_3 -nom-",99.128331,86.135527,362.807232
"l3_1 -nom-",112.216419,76.957938,377.453480

#edges
r: s1
s1: c1, s2
s2: c2, s3
s3: b1_1, s4
s4: b2_1, l3_1
b1_1: l1_1, b1_2
b1_2: l1_2, l1_3
b2_1: l2_1, b2_2
b2_2: l2_2, l2_3