"r -nom-",91.651386,57.806584,368.217362
"s1 -nom-",94.763463,81.308872,369.445870
"s2 -nom-",94.668634,81.589667,369.374541
"s3 -nom-",96.099083,97.879210,367.239899
"s4 -nom-",97.108336,107.506509,371.758482
"c1 -nom-",71.357342,98.268713,371.422397
"c2 -nom-",120.460304,94.601775,366.890214
"b1_0 -nom-",99.847773,124.938831,351.719006
"b1_1 -nom-",101.492063,130.042346,347.552135
"b1_2 -nom-",102.465981,136.020291,341.192961
"b1_3 -nom-",106.754626,142.989656,332.507030
"l1_0 -nom-",96.350201,127.351655,352.082582
"l1_1 -nom-",104.739628,132.830868,349.450934
"l1_2 -nom-",97.179539,140.686952,337.400797
"l1_3 -nom-",111.346848,146.363184,333.906838
"l1_4 -nom-",108.878245,147.031574,324.455942
"b2_0 -nom-",100.505086,122.139544,382.787775
"b2_1 -nom-",100.685257,123.352634,383.905660
"b2_2 -nom-",101.418217,132.264389,391.546382
"b2_3 -nom-",102.005512,132.620020,391.903979
"b2_4 -nom-",104.691930,141.373251,409.626460
"b2_5 -nom-",107.287320,142.710090,415.224772
"l2_0 -nom-",99.223911,124.498648,381.795969
"l2_1 -nom-",103.564972,127.196250,382.282407
"l2_2 -nom-",98.188873,135.345733,391.770626
"l2_3 -nom-",108.472942,136.681470,392.177796
"l2_4 -nom-",103.767638,141.494787,410.243682
"l2_5 -nom-",108.433800,143.348099,415.176391
"l2_6 -nom-",108.061933,141.909817,418.772707
"l3_0 -nom-",93.422826,126.421204,371.674624

#edges
r: s1
s1: c1, s2
s2: c2, s3
s3: b1_0, s4
s4: b2_0, l3_0
b1_0: l1_0, b1_1
b1_1: l1_1, b1_2
b1_2: l1_2, b1_3
b1_3: l1_3, l1_4
b2_0: l2_0, b2_1
b2_1: l2_1, b2_2
b2_2: l2_2, b2_3
b2_3: l2_3, b2_4
b2_4: l2_4, b2_5
b2_5: l2_5, l2_6