"r -nom-",88.196912,51.607175,390.442426
"s1 -nom-",88.515266,74.304546,389.833040
"s2 -nom-",88.738650,74.436058,390.038489
"s3 -nom-",88.130593,80.919418,389.030650
"s4 -nom-",86.232836,83.854660,387.751020
"c1 -nom-",100.394131,89.969000,377.612858
"c2 -nom-",69.704097,89.012280,398.074001
"b1_1 -nom-",96.802975,98.993690,397.774993
"b1_2 -nom-",99.482465,102.480131,401.807290
"l1_1 -nom-",98.349363,100.998140,396.573496
"l1_2 -nom-",97.833502,105.024802,403.062243
"l1_3 -nom-",106.384467,105.935068,407.704726
"b2_1 -nom-",80.757201,93.921165,375.751091
"b2_2 -nom-",79.666969,94.774570,373.260326
"b2_3 -nom-",75.142238,96.311438,367.198373
"b2_4 -nom-",73.579871,95.824126,364.793541
"l2_1 -nom-",80.395520,95.373256,376.353565
"l2_2 -nom-",80.614472,95.552190,372.889126
"l2_3 -nom-",74.012856,97.309499,367.487524
"l2_4 -nom-",74.058027,97.613616,363.182711
"l2_5 -nom-",71.068750,95.808633,360.552046
"l3_1 -nom-",86.667757,87.272238,387.990344

#edges
r: s1
s1: c1, s2
s2: c2, s3
s3: b1_1, s4
s4: b2_1, l3_1
b1_1: l1_1, b1_2
b1_2: l1_2, l1_3
b2_1: l2_1, b2_2
b2_2: l2_2, b2_3
b2_3: l2_3, b2_4
b2_4: l2_4, l2_5
