"r -nom-",89.170843,61.822916,397.357043
"s1 -nom-",88.722478,83.124529,394.128200
"s2 -nom-",88.720680,83.176659,394.105320
"c1 -nom-",85.435523,86.891436,393.836126
"c2 -nom-",90.967040,87.552844,392.255376

#edges
r:s1
s1:c1,s2
s2:c2