"r -nom-",90.157585,61.532305,362.361396
"s1 -nom-",76.538830,118.024142,340.523179
"s2 -nom-",76.508466,118.085170,340.482454
"s3 -nom-",70.241660,135.581830,325.298304
"s4 -nom-",70.669384,141.183471,323.246026
"c1 -nom-",65.509066,130.261877,342.446996
"c2 -nom-",85.721382,132.258518,333.473774
"b1_0 -nom-",69.649733,139.416399,312.132099
"b1_1 -nom-",68.521684,139.837488,307.204577
"l1_0 -nom-",71.573239,141.541957,311.198534
"l1_1 -nom-",66.039043,142.691459,306.198755
"l1_2 -nom-",68.656885,139.506554,298.230356
"b2_0 -nom-",63.888569,151.507964,321.290151
"b2_1 -nom-",63.229255,152.548716,321.194121
"b2_2 -nom-",58.601143,157.568500,321.093230
"b2_3 -nom-",55.721030,159.955184,321.963044
"l2_0 -nom-",63.959931,151.509311,320.178698
"l2_1 -nom-",64.185236,153.506001,321.659448
"l2_2 -nom-",57.934630,157.733698,319.132819
"l2_3 -nom-",55.595946,161.273697,322.909219
"l2_4 -nom-",51.987591,161.543070,321.795172
"l3_0 -nom-",71.139833,144.516790,320.546295

#edges
r: s1
s1: c1, s2
s2: c2, s3
s3: b1_0, s4
s4: b2_0, l3_0
b1_0: l1_0, b1_1
b1_1: l1_1, l1_2
b2_0: l2_0, b2_1
b2_1: l2_1, b2_2
b2_2: l2_2, b2_3
b2_3: l2_3, l2_4