"r -nom-",94.216183,62.204287,401.536616
"s1 -nom-",96.538356,95.601755,402.272462
"s2 -nom-",96.602618,95.703003,402.264526
"s3 -nom-",96.617689,95.790041,402.243146
"c1 -nom-",99.423190,101.002739,402.003055
"c2 -nom-",94.682683,100.697119,402.660950
"l1_0 -nom-",96.566055,97.798886,402.899615
"l2_0 -nom-",96.426999,96.995631,401.312363

#edges
r: s1
s1: c1, s2
s2: c2, s3
s3: l1_0, l2_0
