"r -nom-",97.882619,62.589086,410.349460
"s1 -nom-",100.864820,103.256865,413.063295
"s2 -nom-",100.869337,103.284154,413.077274
"s3 -nom-",100.877202,103.313940,413.096584
"c1 -nom-",105.315046,110.372689,414.418594
"c2 -nom-",97.191685,110.775717,414.187086
"l1_0 -nom-",101.009331,106.894292,414.204125
"l2_0 -nom-",101.017007,106.521654,412.165574

#edges
r: s1
s1: c1, s2
s2: c2, s3
s3: l1_0, l2_0