"r -nom-",91.690896,50.593779,408.994905
"s1 -nom-",91.298658,71.476463,411.155827
"s2 -nom-",91.206990,71.935696,411.014553
"s3 -nom-",91.178617,75.778836,411.790975
"s4 -nom-",92.480814,77.744757,413.527519
"c1 -nom-",80.525526,86.179784,419.354642
"c2 -nom-",105.845903,85.761459,406.377496
"b1_1 -nom-",85.614346,88.932938,398.532114
"b1_2 -nom-",85.288836,89.324430,397.821518
"l1_1 -nom-",87.143225,91.287537,397.273101
"l1_2 -nom-",82.196882,92.208311,397.328964
"l1_3 -nom-",80.924579,92.208062,387.748619
"b2_1 -nom-",98.810453,84.103926,421.210086
"b2_2 -nom-",99.687326,84.643877,421.469081
"b2_3 -nom-",104.684130,85.859399,427.884960
"b2_4 -nom-",105.921908,86.088153,428.643558
"l2_1 -nom-",97.848513,86.014348,421.632501
"l2_2 -nom-",100.570002,87.130595,420.851298
"l2_3 -nom-",103.621139,88.670686,432.368116
"l2_4 -nom-",107.775502,88.080744,428.353095
"l2_5 -nom-",111.880763,86.701085,436.146588
"l3_1 -nom-",91.469462,79.038665,412.843258

#edges
r: s1
s1: c1, s2
s2: c2, s3
s3: b1_1, s4
s4: b2_1, l3_1
b1_1: l1_1, b1_2
b1_2: l1_2, l1_3
b2_1: l2_1, b2_2
b2_2: l2_2, b2_3
b2_3: l2_3, b2_4
b2_4: l2_4, l2_5