"r -nom-",67.464588,52.742159,397.695142
"s1 -nom-",71.140627,73.723816,399.016425
"s2 -nom-",71.197184,73.996901,398.977089
"s3 -nom-",73.495186,79.373006,398.259805
"s4 -nom-",78.277446,83.680351,400.639283
"s5 -nom-",75.940290,91.643443,402.314727
"s6 -nom-",77.052517,96.309026,402.410229
"c1 -nom-",82.849430,62.353752,384.197167
"c2 -nom-",64.314605,75.216941,422.258046
"b1_1 -nom-",51.815677,97.323609,386.189997
"b1_2 -nom-",51.636376,97.522068,386.013493
"l1_1 -nom-",51.877840,103.273239,384.748832
"l1_2 -nom-",44.944053,100.835119,389.120152
"l1_3 -nom-",38.920656,107.117302,381.203359
"b2_1 -nom-",102.195267,86.996373,412.010079
"b2_2 -nom-",104.901141,86.158719,411.952700
"b2_3 -nom-",117.928095,79.200189,416.277828
"b2_4 -nom-",120.328059,77.950896,416.661596
"l2_1 -nom-",105.991402,92.973962,417.940185
"l2_2 -nom-",110.470939,90.807250,410.086874
"l2_3 -nom-",120.662825,78.468342,420.921587
"l2_4 -nom-",125.376835,78.322189,415.430331
"l2_5 -nom-",132.059125,66.290889,418.541848
"b3_1 -nom-",65.685792,106.501822,411.781244
"b3_2 -nom-",65.025325,107.449321,412.778353
"b3_3 -nom-",54.577717,113.108561,420.516617
"b3_4 -nom-",53.629313,112.878350,420.660539
"l3_1 -nom-",65.851852,107.944830,414.158159
"l3_2 -nom-",64.162736,110.092443,409.603349
"l3_3 -nom-",55.002369,115.815472,424.647692
"l3_4 -nom-",52.019730,116.332111,419.310268
"l3_5 -nom-",44.928510,114.808482,425.847957
"b4_1 -nom-",80.654534,108.763060,397.403401
"b4_2 -nom-",80.783729,109.458220,397.204239
"b4_3 -nom-",82.070148,118.581860,393.792083
"b4_4 -nom-",82.253989,119.334143,393.482530
"l4_1 -nom-",82.120301,110.403795,399.065116
"l4_2 -nom-",78.673468,113.217435,398.600746
"l4_3 -nom-",85.380720,119.747977,393.316187
"l4_4 -nom-",80.968275,123.081686,395.285994
"l4_5 -nom-",82.881965,124.671159,391.007616
"l5_1 -nom-",78.428658,99.499652,405.359885

#edges
r: s1
s1: c1, s2
s2: c2, s3
s3: b1_1, s4
s4: b2_1, s5
s5: b3_1, s6
s6: b4_1, l5_1
b1_1: l1_1, b1_2
b1_2: l1_2, l1_3
b2_1: l2_1, b2_2
b2_2: l2_2, b2_3
b2_3: l2_3, b2_4
b2_4: l2_4, l2_5
b3_1: l3_1, b3_2
b3_2: l3_2, b3_3
b3_3: l3_3, b3_4
b3_4: l3_4, l3_5
b4_1: l4_1, b4_2
b4_2: l4_2, b4_3
b4_3: l4_3, b4_4
b4_4: l4_4, l4_5