"r -nom-",97.316060,61.545497,388.822871
"s1 -nom-",93.502086,88.676610,390.649906
"s2 -nom-",93.365807,89.172831,390.635115
"s3 -nom-",89.029420,109.611187,388.434724
"s4 -nom-",90.390763,124.113390,391.096054
"s5 -nom-",92.599382,133.341251,386.334270
"c1 -nom-",71.231363,114.216903,396.173872
"c2 -nom-",114.617718,111.757191,377.399147
"b1e -nom-",67.660700,143.263060,373.083249
"b1d -nom-",55.960912,153.687698,363.279389
"b1c -nom-",49.748931,156.853420,358.708780
"l1e -nom-",63.424074,147.231292,378.967549
"l1d -nom-",61.358429,159.704008,354.567578
"l1c -nom-",43.308604,158.814670,361.601979
"l1b -nom-",39.900124,159.987357,347.982946
"b2e -nom-",95.862467,151.584379,411.249553
"b2d -nom-",99.413829,158.261707,422.743413
"b2c -nom-",99.510993,161.439153,429.716189
"b2b -nom-",104.109452,164.301545,448.178775
"b2a -nom-",103.806816,165.384888,457.418992
"l2e -nom-",89.634881,154.413967,412.874733
"l2d -nom-",106.726320,162.263792,421.290278
"l2c -nom-",93.404330,164.589482,435.173175
"l2b -nom-",106.635775,163.427089,450.759379
"l2a -nom-",103.086636,166.080150,458.196918
"l2z -nom-",104.389482,164.598771,465.648793
"b3e -nom-",103.620544,150.640057,366.903610
"b3d -nom-",103.556669,151.225771,366.064210
"b3c -nom-",111.008514,157.152024,355.996410
"b3b -nom-",111.123095,157.250290,355.839707
"l3e -nom-",105.419196,153.454513,368.020736
"l3d -nom-",100.763783,153.541587,364.677924
"l3c -nom-",114.781731,159.103298,355.972672
"l3b -nom-",109.648433,158.345766,353.714390
"l3a -nom-",118.553740,159.024877,345.731666
"l4e -nom-",85.323839,161.159464,391.128690

#edges
r: s1
s1: c1, s2
s2: c2, s3
s3: b1e, s4
s4: b2e, s5
s5: b3e, l4e
b1e: l1e, b1d
b1d: l1d, b1c
b1c: l1c, l1b
b2e: l2e, b2d
b2d: l2d, b2c
b2c: l2c, b2b
b2b: l2b, b2a
b2a: l2a, l2z
b3e: l3e, b3d
b3d: l3d, b3c
b3c: l3c, b3b
b3b: l3b, l3a
#end