"r -nom-",92.594241,50.369447,393.888252
"s1 -nom-",100.938926,75.643947,392.431500
"s2 -nom-",100.991281,75.748792,392.453252
"s3 -nom-",102.592873,80.371895,393.140162
"c1 -nom-",118.188281,82.039601,395.611063
"c2 -nom-",89.334794,89.738653,384.656965
"b1_1 -nom-",103.289432,88.054009,397.957211
"b1_2 -nom-",103.493970,88.845863,398.976402
"l1_1 -nom-",102.895704,89.055042,397.539185
"l1_2 -nom-",103.987447,89.327952,398.270744
"l1_3 -nom-",104.397551,92.226667,403.338909
"b2_1 -nom-",103.430399,84.429615,391.807637
"b2_2 -nom-",103.716883,85.115158,391.495460
"l2_1 -nom-",103.101754,85.626707,391.814115
"l2_2 -nom-",103.598530,85.323662,391.995268
"l2_3 -nom-",104.407416,85.978990,390.780262

#edges
r: s1
s1: c1, s2
s2: c2, s3
s3: b1_1, b2_1
b1_1: l1_1, b1_2
b1_2: l1_2, l1_3
b2_1: l2_1, b2_2
b2_2: l2_2, l2_3