"r -nom-",87.868237,52.422210,414.686431
"s1 -nom-",88.242148,75.334397,412.878187
"s2 -nom-",88.240091,75.523501,412.865972
"s3 -nom-",87.533128,87.684407,410.650952
"s4 -nom-",90.433020,94.283198,407.527599
"s5 -nom-",90.530441,99.269415,408.762935
"s6 -nom-",89.753085,100.660169,408.444258
"c1 -nom-",101.639527,104.627683,414.162745
"c2 -nom-",70.441666,99.881620,402.234618
"b1_1 -nom-",76.003100,114.920547,430.060635
"b1_2 -nom-",74.323242,116.608640,432.709349
"l1_1 -nom-",70.920054,119.137467,428.748646
"l1_2 -nom-",77.598804,121.824894,437.005400
"l1_3 -nom-",64.121666,125.197173,446.670419
"b2_1 -nom-",90.505191,113.648874,396.078705
"b2_2 -nom-",90.190909,114.632954,395.371097
"b2_3 -nom-",89.773536,125.325845,387.649672
"b2_4 -nom-",89.485511,126.559098,386.624711
"l2_1 -nom-",91.766364,116.189075,397.570370
"l2_2 -nom-",88.215869,117.879219,396.620338
"l2_3 -nom-",93.943548,129.386585,387.530896
"l2_4 -nom-",84.801945,129.989048,385.826588
"l2_5 -nom-",87.338943,140.416089,373.431824
"b3_1 -nom-",94.547791,112.642445,413.279104
"b3_2 -nom-",94.655367,113.879632,413.699713
"b3_3 -nom-",96.018709,122.520108,417.741684
"b3_4 -nom-",96.065153,122.774650,417.921166
"l3_1 -nom-",94.685418,115.418349,411.707475
"l3_2 -nom-",91.420732,116.300253,413.148066
"l3_3 -nom-",96.812245,124.992423,416.967980
"l3_4 -nom-",93.508665,124.457844,417.732970
"l3_5 -nom-",95.778635,128.319358,422.396103
"l4_1 -nom-",88.232843,109.658878,408.684421
"l5_1 -nom-",91.237432,101.286060,408.282375

#edges
r: s1
s1: c1, s2
s2: c2, s3
s3: b1_1, s4
s4: b2_1, s5
s5: b3_1, s6
s6: l4_1, l5_1
b1_1: l1_1, b1_2
b1_2: l1_2, l1_3
b2_1: l2_1, b2_2
b2_2: l2_2, b2_3
b2_3: l2_3, b2_4
b2_4: l2_4, l2_5
b3_1: l3_1, b3_2
b3_2: l3_2, b3_3
b3_3: l3_3, b3_4
b3_4: l3_4, l3_5
