"r -nom-",111.816134,58.778036,394.228181
"s1 -nom-",114.405276,102.341337,400.066311
"s2 -nom-",114.434013,102.438316,400.094587
"s3 -nom-",114.444761,102.531482,400.136757
"l1_0 -nom-",115.840862,106.021299,402.763900
"l2_0 -nom-",114.219891,105.896107,399.860426
"c1 -nom-",121.337960,111.092601,400.077282
"c2 -nom-",110.782839,109.528201,403.899297


#edges
r: s1
s1: c1, s2
s2: c2, s3
s3: l1_0, l2_0