"r -nom-",109.969231,53.005871,389.690490
"s3 -nom-",113.784766,77.300230,390.382887
"s4 -nom-",120.158079,81.091482,392.760157
"s5 -nom-",119.074634,93.085047,393.915837
"s6 -nom-",119.114583,101.180190,391.266162
"s7 -nom-",117.979721,109.886443,392.539640
"b1_1 -nom-",93.879249,87.181906,378.823781
"b1_2 -nom-",93.487076,87.233931,378.304816
"l1_1 -nom-",91.802234,86.338016,374.096655
"l1_2 -nom-",84.126983,79.332327,379.961279
"l1_3 -nom-",92.048104,92.835335,376.969647
"b2_1 -nom-",143.531931,78.292143,393.557277
"b2_2 -nom-",144.914528,78.343662,393.726216
"b2_3 -nom-",160.731626,69.388468,395.692989
"b2_4 -nom-",161.226244,68.758686,395.028961
"b2_5 -nom-",174.640458,54.883919,398.499930
"b2_6 -nom-",174.761551,54.456078,398.672397
"l2_1 -nom-",145.078607,84.503760,395.060667
"l2_2 -nom-",149.804566,82.537797,390.747766
"l2_3 -nom-",168.380894,71.876777,389.582025
"l2_4 -nom-",164.112992,75.599568,397.527742
"l2_5 -nom-",176.596106,52.266767,397.091246
"l2_6 -nom-",175.457394,54.297279,400.290794
"l2_7 -nom-",174.871519,47.038231,400.878952
"b3_1 -nom-",107.437659,98.708715,406.086645
"b3_2 -nom-",107.196405,98.763762,406.331346
"b3_3 -nom-",100.530428,96.828673,414.178775
"b3_4 -nom-",100.183348,96.641801,414.542240
"b3_5 -nom-",90.360543,85.024800,424.319193
"b3_6 -nom-",90.025122,84.676906,424.498871
"l3_1 -nom-",106.376679,99.543123,405.727162
"l3_2 -nom-",108.110285,100.117448,407.316394
"l3_3 -nom-",97.182755,101.483957,414.747033
"l3_4 -nom-",98.590348,96.645313,417.840792
"l3_5 -nom-",87.027100,83.835565,424.238109
"l3_6 -nom-",90.529216,83.552976,426.305675
"l3_7 -nom-",86.842976,75.263504,425.612082
"b4_1 -nom-",118.903081,120.413965,381.152801
"b4_2 -nom-",118.966347,120.630251,380.992234
"b4_3 -nom-",118.020769,131.867571,374.180060
"b4_4 -nom-",117.978483,132.230606,373.888355
"l4_1 -nom-",116.329825,124.702487,381.789708
"l4_2 -nom-",121.438069,122.286547,380.327332
"l4_3 -nom-",118.301937,136.512175,375.109013
"l4_4 -nom-",119.672633,133.412042,371.562890
"l4_5 -nom-",114.281554,140.370293,370.792174
"l5_1 -nom-",114.561260,131.220104,396.991216
"l6_1 -nom-",113.071379,114.129200,391.091649

#edges
r: s3
s3: b1_1, s4
s4: b2_1, s5
s5: b3_1, s6
s6: b4_1, s7
s7: l5_1, l6_1
b1_1: l1_1, b1_2
b1_2: l1_2, l1_3
b2_1: l2_1, b2_2
b2_2: l2_2, b2_3
b2_3: l2_3, b2_4
b2_4: l2_4, b2_5
b2_5: l2_5, b2_6
b2_6: l2_6, l2_7
b3_1: l3_1, b3_2
b3_2: l3_2, b3_3
b3_3: l3_3, b3_4
b3_4: l3_4, b3_5
b3_5: l3_5, b3_6
b3_6: l3_6, l3_7
b4_1: l4_1, b4_2
b4_2: l4_2, b4_3
b4_3: l4_3, b4_4
b4_4: l4_4, l4_5