"r -nom-",94.685436,54.307037,404.964672
"s1 -nom-",93.825532,71.232434,404.812502
"s2 -nom-",93.817406,71.273008,404.817855
"s3 -nom-",92.805773,77.685955,403.703018
"s4 -nom-",93.416559,80.181994,404.831223
"s5 -nom-",92.580536,82.940256,403.976800
"c1 -nom-",80.390544,83.736420,411.101803
"c2 -nom-",102.845119,85.367925,398.399048
"b1_1 -nom-",83.137437,90.693355,397.801566
"b1_2 -nom-",79.038302,94.591137,395.450448
"b1_3 -nom-",72.874545,99.422209,391.091472
"l1_1 -nom-",83.068300,91.003068,398.735867
"l1_2 -nom-",80.154817,96.860062,394.062620
"l1_3 -nom-",71.293325,100.544210,391.911453
"l1_4 -nom-",68.804487,101.825065,387.971339
"b2_1 -nom-",92.610689,89.319521,410.987677
"b2_2 -nom-",92.856558,93.965665,414.330680
"b2_3 -nom-",92.761923,97.166125,417.304408
"b2_4 -nom-",93.196059,102.008098,422.220897
"l2_1 -nom-",92.131130,90.106152,410.605955
"l2_2 -nom-",94.047521,95.829083,413.749484
"l2_3 -nom-",91.059879,98.788914,417.468037
"l2_4 -nom-",93.786146,102.411246,421.744437
"l2_5 -nom-",92.967546,104.954616,425.508484
"b3_1 -nom-",93.283415,88.004904,401.179558
"b3_2 -nom-",93.307881,88.063392,401.157708
"l3_1 -nom-",92.291523,89.982272,401.279337
"l3_2 -nom-",94.007781,89.519033,401.016416
"l3_3 -nom-",93.764698,90.697983,399.368843
"l4_1 -nom-",91.924572,83.916184,404.313954

#edges
r: s1
s1: c1, s2
s2: c2, s3
s3: b1_1, s4
s4: b2_1, s5
s5: b3_1, l4_1
b1_1: l1_1, b1_2
b1_2: l1_2, b1_3
b1_3: l1_3, l1_4
b2_1: l2_1, b2_2
b2_2: l2_2, b2_3
b2_3: l2_3, b2_4
b2_4: l2_4, l2_5
b3_1: l3_1, b3_2
b3_2: l3_2, l3_3
