"r -nom-",122.363541,52.952944,378.314131
"s1 -nom-",121.553086,68.048799,377.387246
"s2 -nom-",121.543365,68.113919,377.377420
"s3 -nom-",121.526136,68.234695,377.362301
"c1 -nom-",117.180815,72.571638,377.076027
"c2 -nom-",124.103879,73.275623,375.565645
"l1_A -nom-",120.915758,69.881470,375.552676
"l2_A -nom-",121.383939,70.678622,377.700589

#edges
r: s1
s1: c1, s2
s2: c2, s3
s3: l1_A, l2_A
