"r -nom-",118.796714,49.365458,380.047790
"s1 -nom-",117.617268,70.170263,376.174704
"s2 -nom-",117.614590,70.218429,376.163144
"c1 -nom-",114.041776,75.819519,374.319749
"c2 -nom-",121.396533,75.776923,374.610957
"l1_A -nom-",117.765098,72.319939,374.131324

#edges
r: s1
s1: c1, s2
s2: c2, l1_A