"r -nom-",90.456760,56.550042,414.970091
"s1 -nom-",98.413349,74.518642,406.768275
"s2 -nom-",96.193210,76.020023,407.115883
"s3 -nom-",97.275136,80.684097,406.947969
"s4 -nom-",98.481913,82.625546,405.674715
"s5 -nom-",98.033511,88.758634,401.252310
"l1 -nom-",145.219493,82.636189,380.789960
"l2 -nom-",53.312970,171.781463,472.776374
"l3 -nom-",149.062501,91.466187,375.674633
"l4 -nom-",47.200295,183.800135,404.130858
"l5 -nom-",135.783131,132.137251,379.418925
"b1 -nom-",127.211828,83.855635,391.047423
"b2 -nom-",71.727448,122.875115,420.478670
"b3 -nom-",124.140512,91.304472,389.481142
"b4 -nom-",81.015997,130.381883,403.989665
"b5 -nom-",114.966823,108.950521,392.010175


#edges
r: s1
s1: b1, s2
s2: b2, s3
s3: b3, s4
s4: b4, s5
s5: b5
b1: l1
b2: l2
b3: l3
b4: l4
b5: l5