"r -nom-",102.436768,55.102681,372.333094
"s1 -nom-",102.500173,71.633447,371.203167
"b1 -nom-",99.782560,80.340807,373.676086
"l1 -nom-",98.124340,89.219529,375.749593

#edges
r: s1
s1: b1
b1: l1