"r -nom-",98.945556,54.120563,372.316240
"s1 -nom-",88.422690,96.500269,365.315007
"s2 -nom-",82.925517,112.848347,362.021685
"s3 -nom-",80.751537,117.754694,359.785303
"b1 -nom-",89.431728,119.976576,361.016684
"b2 -nom-",50.068268,142.397095,344.070489
"b3 -nom-",56.718389,164.999245,347.702396
"l1 -nom-",92.145109,135.798900,363.242011
"l2 -nom-",24.619179,138.720392,330.397619
"l3 -nom-",8.650741,189.228305,337.765166

#edges
r: s1
s1: b1, s2
s2: b2, s3
s3: b3
b1: l1
b2: l2
b3: l3