"r -nom-",88.239616,55.834752,368.513199
"s1 -nom-",88.403531,91.004472,365.751907
"s3 -nom-",88.091045,108.470812,362.867237
"s2 -nom-",88.439429,105.197900,364.226672
"s4 -nom-",88.161044,115.689581,361.537725
"l1 -nom-",99.331986,126.609599,371.102508
"l2 -nom-",103.951700,159.191760,320.378599
"l3 -nom-",46.246552,150.040651,348.624805
"l4 -nom-",88.708969,227.203324,341.745448
"l5 -nom-",91.040144,60.541250,365.859818
"b1 -nom-",92.545007,114.263032,367.978950
"b2 -nom-",95.712159,152.712272,342.855704
"b3 -nom-",69.917601,142.994209,358.241325
"b4 -nom-",82.006584,178.401268,352.308608
"b5 -nom-",90.550527,59.266457,367.022986

#edges
r: s1, b5
s1: b1, s2
s2: b2, s3
s3: b3, s4
s4: b4
b1: l1
b2: l2
b3: l3
b4: l4
b5: l5