"r -nom-",123.098181,56.277475,424.308704
"s1 -nom-",119.443237,81.718711,419.592442
"s2 -nom-",118.519079,90.867634,418.474774
"b1_1 -nom-",120.540196,104.059695,420.990038
"l1 -nom-",131.793943,119.334616,432.588089
"b2_1 -nom-",103.925738,125.617502,403.304186
"l2 -nom-",76.714189,143.596453,365.195706

#edges
r: s1
s1: b1_1, s2
b1_1: l1
s2: b2_1
b2_1: l2