"r -nom-",65.594299,55.197613,426.619294
"s1 -nom-",65.641629,90.870418,425.385720
"s2 -nom-",65.191040,108.195514,424.031514
"s3 -nom-",64.907827,111.408271,425.083243
"s4 -nom-",64.425040,113.332304,424.776113
"s5 -nom-",64.165326,119.989292,423.481505
"l1 -nom-",79.134299,125.909776,428.817097
"l2 -nom-",73.068665,158.803266,381.794182
"l3 -nom-",27.203913,160.610728,447.595714
"l4 -nom-",52.966568,251.369819,418.658986
"l5 -nom-",40.324869,170.757415,411.115973
"l6 -nom-",67.767343,60.271261,422.707669
"b1 -nom-",72.208356,115.909492,427.393895
"b2 -nom-",67.068132,147.625238,409.582085
"b3 -nom-",49.610437,150.592839,435.289372
"b4 -nom-",56.419842,189.519030,418.227741
"b5 -nom-",55.761703,148.328231,419.177109
"b6 -nom-",67.314537,58.418794,424.685909

#edges
r: s1, b6
s1: b1, s2
s2: b2, s3
s3: b3, s4
s4: b4, s5
s5: b5
b1: l1
b2: l2
b3: l3
b4: l4
b5: l5
b6: l6