"r -nom-",73.957813,56.390300,416.923153
"s1 -nom-",66.560883,89.335260,413.574924
"s2 -nom-",65.110954,97.176454,412.147167
"s3 -nom-",62.766744,106.495601,410.682127
"s4 -nom-",58.799114,122.367024,410.293000
"s5 -nom-",58.718078,122.468533,410.277882
"l1 -nom-",67.011447,130.591954,420.874734
"l2 -nom-",11.766395,154.004558,419.300397
"l3 -nom-",53.503848,155.199058,368.225736
"l4 -nom-",12.058122,243.469526,400.898784
"l5 -nom-",18.524996,184.682212,413.501214
"l6 -nom-",77.223697,60.256078,412.990258
"b1 -nom-",65.002890,115.953322,415.981810
"b2 -nom-",40.622975,144.066681,415.127187
"b3 -nom-",56.350844,142.718462,395.124075
"b4 -nom-",34.879259,192.691003,413.406010
"b5 -nom-",38.285109,160.258333,411.901546
"b6 -nom-",75.777937,58.725138,414.498164

#edges
r: s1, b6
s1: b1, s2
s2: b2, s3
s3: b3, s4
s4: b4, s5
s5: b5
b1: l1
b2: l2
b3: l3
b4: l4
b5: l5
b6: l6