"r -nom-",115.906495,54.025871,378.735320
"s1 -nom-",116.319420,72.490231,377.117630
"b1 -nom-",115.241559,85.122294,380.527498
"l1 -nom-",114.355147,94.440714,381.913784

#edges
r: s1
s1: b1
b1: l1