"r -nom-",88.228916,58.026580,419.254575
"s2 -nom-",83.806161,74.980215,435.816834
"s3 -nom-",81.736998,81.962153,439.204338
"s4 -nom-",81.857560,82.616721,441.008845
"s5 -nom-",83.904836,90.073708,449.382199
"l2 -nom-",139.174735,90.839827,484.207800
"l3 -nom-",-47.881090,117.906935,431.954495
"l4 -nom-",159.244075,109.158626,532.691514
"l5 -nom-",31.020918,141.039903,466.371414
"l6 -nom-",83.389107,106.809787,465.977218
"b2 -nom-",107.973368,89.822163,466.124503
"b3 -nom-",21.118530,101.817933,451.350116
"b4 -nom-",93.950073,98.611224,473.103130
"b5 -nom-",60.416179,115.347947,455.620396
"b6 -nom-",83.383692,97.122070,456.882706
"s6 -nom-",81.971371,91.348080,451.109921

#edges
r: s2
s2: b2, s3
s3: b3, s4
s4: b4, s5
s5: b5, s6
s6: b6
b2: l2
b3: l3
b4: l4
b5: l5
b6: l6