"r -nom-",76.735435,55.385684,423.761028
"s1 -nom-",74.202806,80.476346,423.246057
"s2 -nom-",69.102982,104.813713,422.979763
"s3 -nom-",67.535750,121.680017,421.893348
"s4 -nom-",67.281168,125.600217,421.285947
"s5 -nom-",66.227754,145.318398,417.437336
"l1 -nom-",91.653013,112.650732,414.525587
"l2 -nom-",-14.661829,187.951807,430.101559
"l3 -nom-",135.560362,294.252548,477.085099
"l4 -nom-",-29.711793,336.108339,297.432022
"l5 -nom-",50.598262,275.308151,463.701735
"l6 -nom-",72.824912,56.750920,426.810376
"b1 -nom-",79.945088,100.295232,418.615852
"b2 -nom-",41.528844,164.041061,423.280420
"b3 -nom-",96.145054,214.571439,408.893869
"b4 -nom-",12.014175,260.170651,396.092185
"b5 -nom-",64.620604,213.727023,427.538986
"b6 -nom-",73.179681,55.763664,426.513771

#edges
r: s1, b6
s1: b1, s2
s2: b2, s3
s3: b3, s4
s4: b4, s5
s5: b5
b1: l1
b2: l2
b3: l3
b4: l4
b5: l5
b6: l6