"r -nom-",103.251295,56.371598,365.465327
"s1 -nom-",94.968103,89.399600,360.576192
"s2 -nom-",90.174272,106.372116,357.312176
"s3 -nom-",87.343737,114.983198,356.061157
"s4 -nom-",86.944478,117.070568,355.429033
"l1 -nom-",96.766800,131.119468,361.296075
"l2 -nom-",73.344149,152.747660,310.980472
"l3 -nom-",40.138131,149.680100,358.829795
"l4 -nom-",51.132792,212.775798,338.494076
"b1 -nom-",94.124410,117.350203,359.255961
"b2 -nom-",81.785004,139.902712,340.852157
"b3 -nom-",68.452855,140.787265,356.819423
"b4 -nom-",70.243619,172.005976,341.986210
"b5 -nom-",104.167221,58.879702,362.917998
"l5 -nom-",104.350310,60.950451,360.536625

#edges
r: s1, b5
s1: b1, s2
s2: b2, s3
s3: b3, s4
s4: b4
b1: l1
b2: l2
b3: l3
b4: l4
b5: l5