"r -nom-",94.300862,54.748027,407.306182
"s1 -nom-",92.158187,80.524563,407.440119
"s2 -nom-",87.134365,105.332849,409.678893
"s3 -nom-",87.176957,122.351143,409.071586
"s4 -nom-",85.880843,135.388079,409.245237
"s5 -nom-",82.543229,156.504064,407.702756
"l1 -nom-",106.231494,114.360600,396.004382
"l2 -nom-",12.053285,196.894660,432.619659
"l3 -nom-",188.472770,279.810091,446.242270
"l4 -nom-",-54.124237,352.807106,351.600195
"l5 -nom-",81.859106,339.170683,488.323789
"l6 -nom-",79.172171,200.467182,408.736403
"b1 -nom-",96.886578,100.408741,402.175247
"b2 -nom-",54.233074,174.420297,417.985799
"b3 -nom-",92.236000,217.431998,415.120320
"b4 -nom-",35.688624,261.180239,417.173531
"b5 -nom-",97.913078,248.117483,424.032847
"b6 -nom-",80.789383,179.953248,408.869419
"b7 -nom-",90.735388,55.662555,410.660535
"l7 -nom-",90.303128,56.902412,411.126128

#edges
r: s1, b7
s1: b1, s2
s2: b2, s3
s3: b3, s4
s4: b4, s5
s5: b5, b6
b1: l1
b2: l2
b3: l3
b4: l4
b5: l5
b6: l6
b7: l7