"r -nom-",103.894322,57.188075,353.157458
"s1 -nom-",106.462768,85.675172,354.696657
"s2 -nom-",107.808934,104.567895,356.568863
"s3 -nom-",107.873637,110.646737,357.216269
"s4 -nom-",110.806767,132.739282,360.376481
"l1 -nom-",84.543628,113.488604,338.413193
"l2 -nom-",152.085293,172.925315,380.413011
"l3 -nom-",80.357399,224.252845,440.427709
"l4 -nom-",126.592818,203.228216,351.740850
"b1 -nom-",95.111712,106.987674,346.802631
"b2 -nom-",124.490405,151.418944,364.257149
"b3 -nom-",100.631109,195.263663,386.101871
"b4 -nom-",117.237870,163.785149,358.825527

#edges
r: s1
s1: b1, s2
s2: b2, s3
s3: b3, s4
s4: b4
b1: l1
b2: l2
b3: l3
b4: l4