"r -nom-",88.060149,55.630537,416.671244
"s1 -nom-",89.271992,83.648614,414.184069
"s2 -nom-",90.216238,101.488040,411.723331
"s3 -nom-",90.983386,118.944395,409.151556
"s4 -nom-",89.882266,129.518891,408.734386
"b1 -nom-",91.879930,106.419900,421.769736
"b2 -nom-",97.139654,170.677623,361.295556
"b3 -nom-",82.663231,231.697093,429.927321
"b4 -nom-",110.729292,228.598431,360.962541
"b5 -nom-",90.792234,155.724462,402.213890
"l1 -nom-",99.536895,114.595130,434.624275
"l2 -nom-",111.673536,194.150435,318.264992
"l3 -nom-",20.024242,299.022189,375.749132
"l4 -nom-",160.064237,257.357872,282.713404
"l5 -nom-",90.592396,175.497760,398.484384

#edges
r: s1
s1: b1, s2
s2: b2, s3
s3: b3, s4
s4: b4, b5
b1: l1
b2: l2
b3: l3
b4: l4
b5: l5
