"r -nom-",114.474008,56.328671,376.845061
"s1 -nom-",112.143936,72.546619,379.133919
"s2 -nom-",97.457616,113.899561,393.596496
"b1 -nom-",115.623363,91.611871,375.850656
"b2 -nom-",88.693522,123.656926,400.229955
"l1 -nom-",128.505568,105.756907,368.520188
"l2 -nom-",83.110762,136.645568,408.632385

#edges
r: s1
s1: b1, s2
s2: b2
b1: l1
b2: l2