"r -nom-",131.651279,55.544530,416.964378
"s1 -nom-",126.722411,89.335388,408.755640
"s2 -nom-",123.492997,104.949133,403.891794
"s3 -nom-",121.970500,112.570928,401.284387
"l1 -nom-",130.099685,131.411939,406.791750
"l2 -nom-",108.491003,149.136132,352.457874
"l3 -nom-",95.720569,151.550073,379.980183
"b1 -nom-",128.176659,120.230057,405.587071
"b2 -nom-",115.825525,140.045447,380.423879
"b3 -nom-",112.250436,133.369647,391.952538

#edges
r: s1
s1: b1, s2
s2: b2, s3
s3: b3
b1: l1
b2: l2
b3: l3