"r -nom-",110.973057,49.880682,371.492856
"s1 -nom-",112.330437,66.066597,371.519348
"s2 -nom-",117.750521,77.114912,370.814736
"l1 -nom-",95.060226,98.760173,376.373716
"l2 -nom-",159.618295,111.711549,358.212340
"b1 -nom-",106.459050,85.883730,375.185311
"b2 -nom-",129.847620,95.022864,365.766944

#edges
r: s1
s1: b1, s2
s2: b2
b1: l1
b2: l2