"r -nom-",109.873142,54.642962,383.532489
"s1 -nom-",107.895826,70.059468,382.850278
"b1 -nom-",107.889822,76.468701,384.202868
"l1 -nom-",106.053492,83.699708,385.493999

#edges
r: s1
s1: b1
b1: l1