"r -nom-",107.183440,56.761811,378.155685
"s1 -nom-",103.909594,84.172908,376.048004
"s2 -nom-",103.272114,88.652690,376.335415
"b1_1 -nom-",97.626113,106.470976,386.626338
"l1 -nom-",94.006565,112.213425,403.620725
"l2 -nom-",88.018160,153.846178,325.706802
"b2 -nom-",94.661577,132.878144,358.793001
"b3 -nom-",101.028961,127.268031,381.929551
"l3 -nom-",102.375872,152.855741,384.476283

#edges
r: s1
s1: b1_1, s2
b1_1: l1
s2: b2, b3
b2: l2
b3: l3